\o Program:		@(#)$CDS: libManager version 6.1.8 - CAT37 02/01/2020 15:01 (ip-172-18-22-98.cadence.com) $
\o Sub version:		sub-version  s090 
\o Arguments:		-mpssession virtuoso3281 -mpshost ENEE408DStudent 
\o Working Directory:	ENEE408DStudent:/home/enee408d_student/Cadence_NCSU
\o 64-bit offsets
\o Qt version: 		5.9.1
\o Log file is "/home/enee408d_student/Cadence_NCSU/libManager.log.1".
\o Opening libManager window.
\a nrResizeWindow(cdsLibManager list(536 108 602 491))
\o changeWorkingDir("/home/enee408d_student/Cadence_NCSU") unnecessary.
\o ddSetForcedLib("") unnecessary.
\o MPS service: map window
\a nrSetCurrentWindow(cdsLibManager)
\o Library Manager customization server connected.
\a nrSetCurrentWindow(cdsLibManager)
\a nrSetCurrentWindow(cdsLibManager)
\a nrSetWindowVisibility(cdsLibManager "hide")
\a nrSetWindowVisibility(cdsLibManager "show")
\a nrSetCurrentWindow(cdsLibManager)
\a nrSetCurrentWindow(cdsLibManager)
